
{
	"result": "OK",
	"records": [
		{
			"id": 100,
			"code": "STD",
			"name": "Standard",
			"description": "Passenger car up to 4 Passengers",
			"created_dt": "2017-01-01T12:00:00Z",
			"modified_dt": "2017-01-01T12:30:00Z",
			"status": 1,
			"locales": [
				{
					"locale": "en-US",
					"name": "Sedan",
					"description": "Passenger car up to 4 Passengers"
				},
				{
					"locale": "en-GB",
					"name": "Standard",
					"description": "Passenger car up to 4 Passengers"
				},
				{
					"locale": "fr-fr",
					"name": "Standard",
					"description": "Passenger car up to 4 Passengers"
				}
			],
			"vehicles": [
				{
					"id": 1,
					"supplier": 100,
					"code": "FORDS",
					"name": "Ford Standard",
					"description": "Ford Standard STD",
					"make": "Ford",
					"model": "Standard",
					"passengers": 4,
					"items": 2,
					"image": "service-standard.png",
					"service_id": 100,
					"status": 1,
					"created_dt": "2017-01-01T12:00:00Z",
					"modified_dt": "2017-01-01T12:30:00Z"
				}
			]
		},
		{
			"id": 101,
			"code": "EXC",
			"name": "Executive",
			"description": "Passenger car up to 4 Passengers",
			"created_dt": "2017-01-01T12:00:00Z",
			"modified_dt": "2017-01-01T12:30:00Z",
			"status": 1,
			"locales": [
				{
					"locale": "en-US",
					"name": "Sedan",
					"description": "Passenger car up to 4 Passengers"
				},
				{
					"locale": "en-GB",
					"name": "Standard",
					"description": "Passenger car up to 4 Passengers"
				},
				{
					"locale": "fr-fr",
					"name": "Standard",
					"description": "Passenger car up to 4 Passengers"
				}
			],
			"vehicles": [
				{
					"id": 2,
					"supplier": 100,
					"code": "EC400",
					"name": "Mercedes E-Class",
					"description": "Mercedes E-400",
					"make": "Mercedes",
					"model": "E-400",
					"passengers": 4,
					"items": 2,
					"image": "service-executive.png",
					"service_id": 100,
					"status": 1,
					"created_dt": "2017-01-01T12:00:00Z",
					"modified_dt": "2017-01-01T12:30:00Z"
				}
			]
		},
		{
			"id": 102,
			"code": "LRG",
			"name": "Large",
			"description": "Passenger car up to 6 Passengers",
			"created_dt": "2017-01-01T12:00:00Z",
			"modified_dt": "2017-01-01T12:30:00Z",
			"status": 1,
			"locales": [
				{
					"locale": "en-US",
					"name": "Large",
					"description": "Passenger car up to 6 Passengers"
				},
				{
					"locale": "en-GB",
					"name": "Large",
					"description": "Passenger car up to 6 Passengers"

				},
				{
					"locale": "fr-fr",
					"name": "Large",
					"description": "Passenger car up to 6 Passengers"
				}
			],
			"vehicles": [
				{
					"id": 1,
					"supplier": 100,
					"code": "FORDS",
					"name": "Ford Galaxy",
					"description": "Ford GAlaxy STD",
					"make": "Ford",
					"model": "Galaxy",
					"passengers": 4,
					"items": 2,
					"image": "service-large-car.png",
					"service_id": 102,
					"status": 1,
					"created_dt": "2017-01-01T12:00:00Z",
					"modified_dt": "2017-01-01T12:30:00Z"
				}
			]
		}
	]
}
